{
  "computer_skills": {
    "open_source": "Ich persönlich verwende fast ausschliesslich freie und Open-Source-Software, da diese Fähigkeiten meist viel leistungsfähiger und effizienter sind. Wann immer möglich, versuche ich, meine Aufgaben mit den unten aufgeführten Tools zu automatisieren.",
    "programming": {
      "gitlab": "https://gitlab.com/alexander_schoch",
      "gitlabeth": "https://gitlab.ethz.ch/schochal",
      "webdev": [
        {
          "framework": "React.js",
          "language": "JavaScript",
          "level": "Fortgeschritten",
          "type": "Frontend"
        },
        {
          "framework": "Next.js",
          "language": "JavaScript",
          "level": "Intermediär",
          "type": "Frontend"
        },
        {
          "framework": "TypeScript",
          "language": "JavaScript",
          "level": "Intermediär",
          "type": "Frontend"
        },
        {
          "framework": "Symfony",
          "language": "php",
          "level": "Intermediär",
          "type": "Backend"
        },
        {
          "framework": "Django",
          "language": "python",
          "level": "Intermediär",
          "type": "Backend"
        },
        {
          "framework": "MUI",
          "language": "JavaScript",
          "level": "Fortgeschritten",
          "type": "Backend"
        },
        {
          "framework": "Mantine",
          "language": "JavaScript",
          "level": "Fortgeschritten",
          "type": "Backend"
        }
      ],
      "gamedev": [
        {
          "framework": "Godot",
          "language": "GDScript",
          "level": "Anfänger",
          "type": "Game Engine"
        },
        {
          "framework": "Unity",
          "language": "C#",
          "level": "Intermediär",
          "type": "Game Engine"
        }
      ],
      "appdev": [
        {
          "framework": "Qt",
          "language": "C++",
          "level": "Anfänger"
        },
        {
          "framework": "GTK",
          "language": "C++",
          "level": "Anfänger"
        }
      ]
    },
    "sysadmin": [
      {
        "name": "GNU/Linux",
        "level": "Fortgeschritten"
      },
      {
        "name": "bash",
        "level": "Fortgeschritten"
      },
      {
        "name": "Ansible",
        "level": "Anfänger"
      }
    ],
    "applications": [
      {
        "name": "git / GitLab",
        "use": "Versionskontrolle"
      },
      {
        "name": "Blender",
        "use": "Animation"
      },
      {
        "name": "Inkscape",
        "use": "Vektorgrafik"
      },
      {
        "name": "kdenlive / ffmpeg",
        "use": "Videobearbeitung"
      },
      {
        "name": "vim",
        "use": "Textbearbeitung"
      }    
    ]
  },
  "military": [
    {
      "type": "Rekrutenschule",
      "troop_type": "ABC Abw",
      "function": "ABC Abw Sdt",
      "description": "Für die Schweizer Armee wurde ich im Chemielabor zum Nachweis von chemischen Kampfstoffen mittels GC-MS ausgebildet.",
      "year": 2021
    }, 
    {
      "type": "Wiederholungskurs",
      "troop_type": "ABC Abw",
      "function": "Chem Lab Spez",
      "description": "Um das Labor Spiez zu unterstützen, setzen wir Technologien wie GC-MS, HPLC-TOF-MS, HPLC-Quadrupol-MS oder NMR ein, um das Vorhandensein und die Konzentration von chemischen Kampfstoffen in Proben zu bestimmen.",
      "year": "2022-2023"
    } 
  ],
  "education": [
    {
      "name": "Primarschule",
      "institution": "Primarschule Schongau",
      "address": "6288 Schongau",
      "start": 2005,
      "end": 2010
    },
    {
      "name": "Gymnasium",
      "institution": "Kantonsschule Seetal",
      "address": "6283 Baldegg",
      "spf": "Biologie & Chemie",
      "ef": "Informatik",
      "wpf": "Musik",
      "start": 2010,
      "end": 2017
    },
    {
      "name": "Bachelor in Chemieingenieurwiss.",
      "institution": "D-CHAB, ETH Zürich",
      "address": "8092 Zürich",
      "start": 2017,
      "end": 2021
    },
    {
      "name": "Master in Verfahrenstechnik",
      "institution": "D-MAVT, ETH Zürich",
      "address": "8092 Zürich",
      "start": 2021,
      "end": "heute"
    }
  ],
  "work": [
    {
      "employer": "Moelbert AG",
      "job": "Büro / Elektronik",
      "start": "2018",
      "end": "2018",
      "description": "Im Rahmen des Projektes Autobahn Zürich Nordring habe ich die Software der Firma Moelbert AG mit entsprechenden Signalen doppelt getestet. Dazu habe ich elektronische Schaltungen erstellt, um bestimmte Situationen zu simulieren und die Funktionalität des Netzes zu testen. Dazu war es auch notwendig, die Daten aller Signale auf diesem Teil der Autobahn zu überprüfen und zu verstehen."
    },
    {
      "employer": "D-HEST, ETH Zürich",
      "job": "Chemie Laborassistent",
      "start": "2020",
      "end": "2020",
      "description": "Im Rahmen des allgemeinen Chemie-Laborkurses für die Studenten des zweiten Semesters der Gesundheitswissenschaften und -technik hielt ich den wöchentlichen Laborkurs \"Synthese von Aspirin / Synthese von Soap\" ab. Die Studenten mussten die Experimente durchführen, ein Laborjournal über ihre Arbeit schreiben und bekamen Fragen gestellt, um zu verstehen, was vor sich geht. Aufgrund des Coronaausbruchs wurde dieser Kurs nur für drei Wochen angesetzt."
    },
    {
      "employer": "UFO, VSETH",
      "job": "PVK-Assistent",
      "start": "2020",
      "end": "2023",
      "description": "Zusammen mit einem Freund habe ich einen Prüfungsvorbereitungskurs (PVK) für die Teile Anorganische Chemie / Chemische Bindungen und Kinetik / Elektrochemie für die Studiengemeinschaft der Umweltwissenschaftler (UFO) konzipiert. Dazu wurden Skripte mit Übungen geschrieben.",
      "scripts": [
        {
          "url": "https://s.aschoch.ch/ac-pvk",
          "title": "AC"
        },
        {
          "url": "https://s.aschoch.ch/kinetik-pvk",
          "title": "Kinetik / Redox"
        }
      ]
    },
    {
      "employer": "D-CHAB, ETH Zürich",
      "job": "Übungsassistent für Informatik I",
      "start": "2020",
      "end": "2020",
      "description": "Erstsemester Studierende der Chemie, des Chemieingenieurwesens und der interdisziplinären Wissenschaften besuchen die Lehrveranstaltung Informatik I. Dazu müssen sie Programmieraufgaben in C++ und Bash lösen und besuchen dazu jede Woche eine Übungssitzung. Dies erforderte ein gutes Verständnis von Bash und C++ sowie die Beherrschung des Betriebssystems GNU/Linux, auf dem der Kurs stattfand."
    },
    {
      "employer": "VCS, VSETH",
      "job": "PVK-Assistent",
      "start": "2021",
      "end": "2023",
      "description": "Für die Erstsemester der Fachschaft Chemie habe ich einen 12-stündigen interaktiven Kurs in Informatik konzipiert, insbesondere wichtige Konzepte und das Innenleben eines Computers sowie das UNIX-Terminal und die Programmiersprache C++.",
      "scripts": [
        {
          "url": "https://s.aschoch.ch/info1-pvk",
          "title": "Informatik I Skript"
        }
      ]
    },
    {
      "employer": "D-CHAB, ETH Zürich",
      "job": "Laborassistent",
      "start": "2021",
      "end": "2022",
      "description": "Jede Woche betreute ich eine neue Gruppe von Schülern bei den Experimenten \"Dampfdruck\" und \"Siedediagramm\", bei denen die Schüler ein tieferes Verständnis der Clausius-Clapeyron-Gleichung und des Wilson-Modells erlangen. Ich habe ihnen beigebracht, wie sie ihre Daten mit der Sprache R auswerten und wie sie Laborberichte schreiben können."
    }
  ]
}
