{
  "computer_skills": {
    "open_source": "I personally almost exclusively use free and open source software, as those skills are mostly much more powerful and efficient. Whenever possible, I try to automate my tasks using the tools listed below.",
    "programming": {
      "gitlab": "https://gitlab.com/alexander_schoch",
      "gitlabeth": "https://gitlab.ethz.ch/schochal",
      "webdev": [
        {
          "framework": "React.js",
          "language": "JavaScript",
          "level": "Advanced",
          "type": "Frontend"
        },
        {
          "framework": "Next.js",
          "language": "JavaScript",
          "level": "Intermediate",
          "type": "Frontend"
        },
        {
          "framework": "TypeScript",
          "language": "JavaScript",
          "level": "Intermediate",
          "type": "Frontend"
        },
        {
          "framework": "Symfony",
          "language": "php",
          "level": "Intermediate",
          "type": "Backend"
        },
        {
          "framework": "Django",
          "language": "python",
          "level": "Intermediate",
          "type": "Backend"
        },
        {
          "framework": "MUI",
          "language": "JavaScript",
          "level": "Advanced",
          "type": "Backend"
        },
        {
          "framework": "Mantine",
          "language": "JavaScript",
          "level": "Advanced",
          "type": "Backend"
        }
      ],
      "gamedev": [
        {
          "framework": "Godot",
          "language": "GDScript",
          "level": "Beginner",
          "type": "Game Engine"
        },
        {
          "framework": "Unity",
          "language": "C#",
          "level": "Intermediate",
          "type": "Game Engine"
        }
      ],
      "appdev": [
        {
          "framework": "Qt",
          "language": "C++",
          "level": "Beginner"
        },
        {
          "framework": "GTK",
          "language": "C++",
          "level": "Beginner"
        }
      ]
    },
    "sysadmin": [
      {
        "name": "GNU/Linux",
        "level": "Advanced"
      },
      {
        "name": "bash",
        "level": "Advanced"
      },
      {
        "name": "Ansible",
        "level": "Beginner"
      }
    ],
    "applications": [
      {
        "name": "git / GitLab",
        "use": "Version Control"
      },
      {
        "name": "Blender",
        "use": "Animation"
      },
      {
        "name": "Inkscape",
        "use": "Vector Graphics"
      },
      {
        "name": "kdenlive / ffmpeg",
        "use": "Video Editing"
      },
      {
        "name": "vim",
        "use": "Text Editing"
      }    
    ]
  },
  "military": [
    {
      "type": "Recruit School",
      "troop_type": "ABC Abw",
      "function": "ABC Abw Sdt",
      "description": "For the swiss army, I was trained in the chemical laboratory to detect chemical warfare agents using GC-MS.",
      "year": 2021
    }, 
    {
      "type": "Repetition Course",
      "troop_type": "ABC Abw",
      "function": "Chem Lab Spez",
      "description": "In order to support the Labor Spiez, we use technologies such as GC-MS, HPLC-TOF-MS, HPLC-Quadrupole-MS or NMR in order to identify the presence and concentration of chemical warfare agents in samples.",
      "year": "2022-2023"
    } 
  ],
 
 "education": [
    {
      "name": "Primary School",
      "institution": "Primarschule Schongau",
      "address": "6288 Schongau",
      "start": 2005,
      "end": 2010
    },
    {
      "name": "Gymnasium",
      "institution": "Kantonsschule Seetal",
      "address": "6283 Baldegg",
      "spf": "Biologie & Chemie",
      "ef": "Informatik",
      "wpf": "Musik",
      "start": 2010,
      "end": 2017
    },
    {
      "name": "Bachelor of Chemical Engineering",
      "institution": "D-CHAB, ETH Zürich",
      "address": "8092 Zürich",
      "start": 2017,
      "end": 2021
    },
    {
      "name": "Master of Process Engineering",
      "institution": "D-MAVT, ETH Zürich",
      "address": "8092 Zürich",
      "start": 2021,
      "end": "today"
    }
  ],
  "work": [
    {
      "employer": "Moelbert AG",
      "job": "Office / Electronics",
      "start": "2018",
      "end": "2018",
      "description": "As part of the Autobahn Zürich Nordring Project, I double tested the software of Moelbert AG (A small company for traffic engineering) with corresponding signals. For that, I created electronic circuits in order to simulate specific situations and test the functionality of the network. This also required to check and understand the data about all signals on this part of the highway."
    },
    {
      "employer": "D-HEST, ETH Zurich",
      "job": "Chemistry Lab Assistant",
      "start": "2020",
      "end": "2020",
      "description": "In the general chemistry lab course for the second semester students of health science and technology, I taught the weekly \"Synthesis of Aspirin / Synthesis of Soap\" lab course. The students were tasked to perform the experiments, write a lab journal about what they did and were asked questions in order to understand what is going on. Due to the corona outbreak, this course was only taught for three weeks."
    },
    {
      "employer": "UFO, VSETH",
      "job": "PVK Assistant",
      "start": "2020",
      "end": "2023",
      "description": "Together with a friend, I taught an exam preparation course (PVK) for the inorganic chemistry / chemical bonds and kinetics / electrochemistry parts for the study association of environmental scientists (UFO). For that, scripts with exercises were written.",
      "scripts": [
        {
          "url": "https://s.aschoch.ch/ac-pvk",
          "title": "AC"
        },
        {
          "url": "https://s.aschoch.ch/kinetik-pvk",
          "title": "Kinetics / Redox"
        }
      ]
    },
    {
      "employer": "D-CHAB, ETH Zurich",
      "job": "Exercise Assistant for Informatik I",
      "start": "2020",
      "end": "2020",
      "description": "First semester Students of chemistry, chemical engineering and interdisciplinary sciences visit the Informatics I course. For this, they have to solve programming exercise in C++ and bash and visit an exercise session for this every week. This required a good understanding of both bash and C++, as well as being a power user for the GNU/Linux operating system, on which this course was held."
    },
    {
      "employer": "VCS, VSETH",
      "job": "PVK Assistant",
      "start": "2021",
      "end": "2023",
      "description": "For the first semester students of the chemical students association, I tought a 12 hour interactive course in informatics, specifically important concepts and inner workings of a compouter, as well as the UNIX terminal and the C++ programming language.",
      "scripts": [
        {
          "url": "https://s.aschoch.ch/info1-pvk",
          "title": "Informatik I Script"
        }
      ]
    },
    {
      "employer": "D-CHAB, ETH Zurich",
      "job": "Lab Assistant",
      "start": "2021",
      "end": "2022",
      "description": "Every week, I supervised a new group of students for the experiments \"Vapour Pressure\" and \"Boiling Diagrams\", in which the students gain a deeper understanding of the Clausius-Clapeyron equation and the Wilson model. I tought them how to evaluate their data using the R language and how to write lab reports."
    }
  ]
}
